ggplot2 demo
…
colnames(a) <- c("subject", "years", "supervisor", 
                 "stat_course", "data_anal", "R_prof",
                 "x", "x1", "x2", "x3", "x4", "x5", "x6")
a <- select(a, -x)

a <- mutate(a, diff_x1_x2=x1 - x2)

a$years <- parse_number(a$years)
a

## # A tibble: 26 x 13
##                        subject years supervisor stat_course data_anal
##                          <chr> <dbl>      <chr>       <chr>     <chr>
##  1 2017/09/18 9:12:14 AM GMT+3    25        Yes         Yes       Yes
##  2 2017/09/18 2:08:51 PM GMT+3    10         No         Yes       Yes
##  3 2017/09/18 3:24:49 PM GMT+3    26        Yes         Yes       Yes
##  4 2017/09/18 3:27:06 PM GMT+3    14        Yes         Yes       Yes
##  5 2017/09/18 3:27:47 PM GMT+3     8         No         Yes       Yes
##  6 2017/09/18 3:30:11 PM GMT+3     7        Yes         Yes        No
##  7 2017/09/18 3:34:36 PM GMT+3    14        Yes         Yes       Yes
##  8 2017/09/18 3:34:45 PM GMT+3     7         No         Yes       Yes
##  9 2017/09/18 3:52:46 PM GMT+3     8        Yes          No       Yes
## 10 2017/09/18 4:05:02 PM GMT+3    10        Yes         Yes       Yes
## # ... with 16 more rows, and 8 more variables: R_prof <chr>, x1 <int>,
## #   x2 <int>, x3 <int>, x4 <int>, x5 <int>, x6 <int>, diff_x1_x2 <int>
…
(midwest <- as_tibble(midwest) %>% select(percwhite, percbelowpoverty, poptotal))

## # A tibble: 437 x 3
##    percwhite percbelowpoverty poptotal
##        <dbl>            <dbl>    <int>
##  1  96.71206        13.151443    66090
##  2  66.38434        32.244278    10626
##  3  96.57128        12.068844    14991
##  4  95.25417         7.209019    30806
##  5  90.19877        13.520249     5836
##  6  98.51210        10.399635    35688
##  7  99.54904        15.149781     5322
##  8  98.29813        11.710726    16805
##  9  99.60557        13.875086    13437
## 10  84.67331        15.572437   173025
## # ... with 427 more rows
…
